2019-06-23 00:51:46,993 ERROR: Exception on /login [GET] [in /home/vicky/flask_project/venv/lib/python3.6/site-packages/flask/app.py:1780]
Traceback (most recent call last):
  File "/home/vicky/flask_project/venv/lib/python3.6/site-packages/flask/app.py", line 2311, in wsgi_app
    response = self.full_dispatch_request()
  File "/home/vicky/flask_project/venv/lib/python3.6/site-packages/flask/app.py", line 1834, in full_dispatch_request
    rv = self.handle_user_exception(e)
  File "/home/vicky/flask_project/venv/lib/python3.6/site-packages/flask/app.py", line 1737, in handle_user_exception
    reraise(exc_type, exc_value, tb)
  File "/home/vicky/flask_project/venv/lib/python3.6/site-packages/flask/_compat.py", line 36, in reraise
    raise value
  File "/home/vicky/flask_project/venv/lib/python3.6/site-packages/flask/app.py", line 1832, in full_dispatch_request
    rv = self.dispatch_request()
  File "/home/vicky/flask_project/venv/lib/python3.6/site-packages/flask/app.py", line 1818, in dispatch_request
    return self.view_functions[rule.endpoint](**req.view_args)
  File "/home/vicky/flask_project/app/routes.py", line 54, in login
    return render_template('login.html', title=_('Sign In'), form=form)
  File "/home/vicky/flask_project/venv/lib/python3.6/site-packages/flask/templating.py", line 135, in render_template
    context, ctx.app)
  File "/home/vicky/flask_project/venv/lib/python3.6/site-packages/flask/templating.py", line 117, in _render
    rv = template.render(context)
  File "/home/vicky/flask_project/venv/lib/python3.6/site-packages/jinja2/asyncsupport.py", line 76, in render
    return original_render(self, *args, **kwargs)
  File "/home/vicky/flask_project/venv/lib/python3.6/site-packages/jinja2/environment.py", line 1008, in render
    return self.environment.handle_exception(exc_info, True)
  File "/home/vicky/flask_project/venv/lib/python3.6/site-packages/jinja2/environment.py", line 780, in handle_exception
    reraise(exc_type, exc_value, tb)
  File "/home/vicky/flask_project/venv/lib/python3.6/site-packages/jinja2/_compat.py", line 37, in reraise
    raise value.with_traceback(tb)
  File "/home/vicky/flask_project/app/templates/login.html", line 1, in top-level template code
    {% extends "base.html" %} {% import 'bootstrap/wtf.html' as wtf %} {% block app_content %}
  File "/home/vicky/flask_project/app/templates/base.html", line 1, in top-level template code
    {% extends 'bootstrap/base.html' %} {% block title %} {% if title %}{{ title }} - Microblog{% else %}{{ _('Welcome to Microblog') }}{% endif %} {% endblock %} {% block navbar %}
  File "/home/vicky/flask_project/venv/lib/python3.6/site-packages/flask_bootstrap/templates/bootstrap/base.html", line 1, in top-level template code
    {% block doc -%}
  File "/home/vicky/flask_project/venv/lib/python3.6/site-packages/flask_bootstrap/templates/bootstrap/base.html", line 4, in block "doc"
    {%- block html %}
  File "/home/vicky/flask_project/venv/lib/python3.6/site-packages/flask_bootstrap/templates/bootstrap/base.html", line 20, in block "html"
    {% block body -%}
  File "/home/vicky/flask_project/venv/lib/python3.6/site-packages/flask_bootstrap/templates/bootstrap/base.html", line 23, in block "body"
    {% block content -%}
  File "/home/vicky/flask_project/app/templates/base.html", line 33, in block "content"
    {% endfor %} {% endif %} {% endwith %} {# application content needs to be provided in the app_content block #} {% block app_content %}{% endblock %}
  File "/home/vicky/flask_project/app/templates/login.html", line 12, in block "app_content"
    <a href="{{ url_for('reset_password_request') }}">{{ _('Click to Reset It') }}</a>
  File "/home/vicky/flask_project/venv/lib/python3.6/site-packages/flask/helpers.py", line 356, in url_for
    return appctx.app.handle_url_build_error(error, endpoint, values)
  File "/home/vicky/flask_project/venv/lib/python3.6/site-packages/flask/app.py", line 2080, in handle_url_build_error
    reraise(exc_type, exc_value, tb)
  File "/home/vicky/flask_project/venv/lib/python3.6/site-packages/flask/_compat.py", line 36, in reraise
    raise value
  File "/home/vicky/flask_project/venv/lib/python3.6/site-packages/flask/helpers.py", line 345, in url_for
    force_external=external)
  File "/home/vicky/flask_project/venv/lib/python3.6/site-packages/werkzeug/routing.py", line 2007, in build
    raise BuildError(endpoint, values, method, self)
werkzeug.routing.BuildError: Could not build url for endpoint 'reset_password_request'. Did you mean 'edit_profile' instead?
2019-06-23 01:00:27,326 INFO: Microblog startup [in /home/vicky/flask_project/app/__init__.py:49]
2019-06-23 01:00:51,773 ERROR: Exception on / [GET] [in /home/vicky/flask_project/venv/lib/python3.6/site-packages/flask/app.py:1780]
Traceback (most recent call last):
  File "/home/vicky/flask_project/venv/lib/python3.6/site-packages/flask/app.py", line 2311, in wsgi_app
    response = self.full_dispatch_request()
  File "/home/vicky/flask_project/venv/lib/python3.6/site-packages/flask/app.py", line 1834, in full_dispatch_request
    rv = self.handle_user_exception(e)
  File "/home/vicky/flask_project/venv/lib/python3.6/site-packages/flask/app.py", line 1737, in handle_user_exception
    reraise(exc_type, exc_value, tb)
  File "/home/vicky/flask_project/venv/lib/python3.6/site-packages/flask/_compat.py", line 36, in reraise
    raise value
  File "/home/vicky/flask_project/venv/lib/python3.6/site-packages/flask/app.py", line 1832, in full_dispatch_request
    rv = self.dispatch_request()
  File "/home/vicky/flask_project/venv/lib/python3.6/site-packages/flask/app.py", line 1818, in dispatch_request
    return self.view_functions[rule.endpoint](**req.view_args)
  File "/home/vicky/flask_project/venv/lib/python3.6/site-packages/flask_login/utils.py", line 261, in decorated_view
    return func(*args, **kwargs)
  File "/home/vicky/flask_project/app/routes.py", line 37, in index
    return render_template('index.html', title=_('Home'), form=form, posts=posts.items, next_url=next_url, prev_url=prev_url)
  File "/home/vicky/flask_project/venv/lib/python3.6/site-packages/flask/templating.py", line 135, in render_template
    context, ctx.app)
  File "/home/vicky/flask_project/venv/lib/python3.6/site-packages/flask/templating.py", line 117, in _render
    rv = template.render(context)
  File "/home/vicky/flask_project/venv/lib/python3.6/site-packages/jinja2/asyncsupport.py", line 76, in render
    return original_render(self, *args, **kwargs)
  File "/home/vicky/flask_project/venv/lib/python3.6/site-packages/jinja2/environment.py", line 1008, in render
    return self.environment.handle_exception(exc_info, True)
  File "/home/vicky/flask_project/venv/lib/python3.6/site-packages/jinja2/environment.py", line 780, in handle_exception
    reraise(exc_type, exc_value, tb)
  File "/home/vicky/flask_project/venv/lib/python3.6/site-packages/jinja2/_compat.py", line 37, in reraise
    raise value.with_traceback(tb)
  File "/home/vicky/flask_project/app/templates/index.html", line 1, in top-level template code
    {% extends "base.html" %} {% block content %}
  File "/home/vicky/flask_project/app/templates/base.html", line 1, in top-level template code
    {% extends 'bootstrap/base.html' %} {% block title %} {% if title %}{{ title }} - Microblog{% else %}{{ _('Welcome to Microblog') }}{% endif %} {% endblock %} {% block navbar %}
  File "/home/vicky/flask_project/venv/lib/python3.6/site-packages/flask_bootstrap/templates/bootstrap/base.html", line 1, in top-level template code
    {% block doc -%}
  File "/home/vicky/flask_project/venv/lib/python3.6/site-packages/flask_bootstrap/templates/bootstrap/base.html", line 4, in block "doc"
    {%- block html %}
  File "/home/vicky/flask_project/venv/lib/python3.6/site-packages/flask_bootstrap/templates/bootstrap/base.html", line 20, in block "html"
    {% block body -%}
  File "/home/vicky/flask_project/venv/lib/python3.6/site-packages/flask_bootstrap/templates/bootstrap/base.html", line 23, in block "body"
    {% block content -%}
  File "/home/vicky/flask_project/app/templates/index.html", line 3, in block "content"
    {% if form %} {{ wtf.quick_form(form) }}
  File "/home/vicky/flask_project/venv/lib/python3.6/site-packages/jinja2/environment.py", line 430, in getattr
    return getattr(obj, attribute)
jinja2.exceptions.UndefinedError: 'wtf' is undefined
2019-06-23 01:07:11,579 INFO: Microblog startup [in /home/vicky/flask_project/app/__init__.py:49]
