2019-06-23 09:44:21,511 ERROR: Exception on / [GET] [in /home/vicky/flask_project/venv/lib/python3.6/site-packages/flask/app.py:1780]
Traceback (most recent call last):
  File "/home/vicky/flask_project/venv/lib/python3.6/site-packages/sqlalchemy/engine/base.py", line 1244, in _execute_context
    cursor, statement, parameters, context
  File "/home/vicky/flask_project/venv/lib/python3.6/site-packages/sqlalchemy/engine/default.py", line 550, in do_execute
    cursor.execute(statement, parameters)
sqlite3.OperationalError: no such column: post.language

The above exception was the direct cause of the following exception:

Traceback (most recent call last):
  File "/home/vicky/flask_project/venv/lib/python3.6/site-packages/flask/app.py", line 2311, in wsgi_app
    response = self.full_dispatch_request()
  File "/home/vicky/flask_project/venv/lib/python3.6/site-packages/flask/app.py", line 1834, in full_dispatch_request
    rv = self.handle_user_exception(e)
  File "/home/vicky/flask_project/venv/lib/python3.6/site-packages/flask/app.py", line 1737, in handle_user_exception
    reraise(exc_type, exc_value, tb)
  File "/home/vicky/flask_project/venv/lib/python3.6/site-packages/flask/_compat.py", line 36, in reraise
    raise value
  File "/home/vicky/flask_project/venv/lib/python3.6/site-packages/flask/app.py", line 1832, in full_dispatch_request
    rv = self.dispatch_request()
  File "/home/vicky/flask_project/venv/lib/python3.6/site-packages/flask/app.py", line 1818, in dispatch_request
    return self.view_functions[rule.endpoint](**req.view_args)
  File "/home/vicky/flask_project/venv/lib/python3.6/site-packages/flask_login/utils.py", line 261, in decorated_view
    return func(*args, **kwargs)
  File "/home/vicky/flask_project/app/main/routes.py", line 32, in index
    posts = current_user.followed_posts().paginate(page, current_app.config['POSTS_PER_PAGE'], False)
  File "/home/vicky/flask_project/venv/lib/python3.6/site-packages/flask_sqlalchemy/__init__.py", line 496, in paginate
    items = self.limit(per_page).offset((page - 1) * per_page).all()
  File "/home/vicky/flask_project/venv/lib/python3.6/site-packages/sqlalchemy/orm/query.py", line 3168, in all
    return list(self)
  File "/home/vicky/flask_project/venv/lib/python3.6/site-packages/sqlalchemy/orm/query.py", line 3324, in __iter__
    return self._execute_and_instances(context)
  File "/home/vicky/flask_project/venv/lib/python3.6/site-packages/sqlalchemy/orm/query.py", line 3349, in _execute_and_instances
    result = conn.execute(querycontext.statement, self._params)
  File "/home/vicky/flask_project/venv/lib/python3.6/site-packages/sqlalchemy/engine/base.py", line 988, in execute
    return meth(self, multiparams, params)
  File "/home/vicky/flask_project/venv/lib/python3.6/site-packages/sqlalchemy/sql/elements.py", line 287, in _execute_on_connection
    return connection._execute_clauseelement(self, multiparams, params)
  File "/home/vicky/flask_project/venv/lib/python3.6/site-packages/sqlalchemy/engine/base.py", line 1107, in _execute_clauseelement
    distilled_params,
  File "/home/vicky/flask_project/venv/lib/python3.6/site-packages/sqlalchemy/engine/base.py", line 1248, in _execute_context
    e, statement, parameters, cursor, context
  File "/home/vicky/flask_project/venv/lib/python3.6/site-packages/sqlalchemy/engine/base.py", line 1466, in _handle_dbapi_exception
    util.raise_from_cause(sqlalchemy_exception, exc_info)
  File "/home/vicky/flask_project/venv/lib/python3.6/site-packages/sqlalchemy/util/compat.py", line 399, in raise_from_cause
    reraise(type(exception), exception, tb=exc_tb, cause=cause)
  File "/home/vicky/flask_project/venv/lib/python3.6/site-packages/sqlalchemy/util/compat.py", line 153, in reraise
    raise value.with_traceback(tb)
  File "/home/vicky/flask_project/venv/lib/python3.6/site-packages/sqlalchemy/engine/base.py", line 1244, in _execute_context
    cursor, statement, parameters, context
  File "/home/vicky/flask_project/venv/lib/python3.6/site-packages/sqlalchemy/engine/default.py", line 550, in do_execute
    cursor.execute(statement, parameters)
sqlalchemy.exc.OperationalError: (sqlite3.OperationalError) no such column: post.language
[SQL: SELECT anon_1.post_id AS anon_1_post_id, anon_1.post_body AS anon_1_post_body, anon_1.post_timestamp AS anon_1_post_timestamp, anon_1.post_user_id AS anon_1_post_user_id, anon_1.post_language AS anon_1_post_language 
FROM (SELECT post.id AS post_id, post.body AS post_body, post.timestamp AS post_timestamp, post.user_id AS post_user_id, post.language AS post_language 
FROM post JOIN followers ON followers.followed_id = post.user_id 
WHERE followers.follower_id = ? UNION SELECT post.id AS post_id, post.body AS post_body, post.timestamp AS post_timestamp, post.user_id AS post_user_id, post.language AS post_language 
FROM post 
WHERE post.user_id = ?) AS anon_1 ORDER BY anon_1.post_timestamp DESC
 LIMIT ? OFFSET ?]
[parameters: (2, 2, 25, 0)]
(Background on this error at: http://sqlalche.me/e/e3q8)
2019-06-24 09:47:03,436 INFO: Microblog startup [in /home/vicky/flask_project/app/__init__.py:71]
2019-06-24 09:47:19,248 ERROR: Exception on / [GET] [in /home/vicky/flask_project/venv/lib/python3.6/site-packages/flask/app.py:1780]
Traceback (most recent call last):
  File "/home/vicky/flask_project/venv/lib/python3.6/site-packages/sqlalchemy/engine/base.py", line 1244, in _execute_context
    cursor, statement, parameters, context
  File "/home/vicky/flask_project/venv/lib/python3.6/site-packages/sqlalchemy/engine/default.py", line 550, in do_execute
    cursor.execute(statement, parameters)
sqlite3.OperationalError: no such column: post.language

The above exception was the direct cause of the following exception:

Traceback (most recent call last):
  File "/home/vicky/flask_project/venv/lib/python3.6/site-packages/flask/app.py", line 2311, in wsgi_app
    response = self.full_dispatch_request()
  File "/home/vicky/flask_project/venv/lib/python3.6/site-packages/flask/app.py", line 1834, in full_dispatch_request
    rv = self.handle_user_exception(e)
  File "/home/vicky/flask_project/venv/lib/python3.6/site-packages/flask/app.py", line 1737, in handle_user_exception
    reraise(exc_type, exc_value, tb)
  File "/home/vicky/flask_project/venv/lib/python3.6/site-packages/flask/_compat.py", line 36, in reraise
    raise value
  File "/home/vicky/flask_project/venv/lib/python3.6/site-packages/flask/app.py", line 1832, in full_dispatch_request
    rv = self.dispatch_request()
  File "/home/vicky/flask_project/venv/lib/python3.6/site-packages/flask/app.py", line 1818, in dispatch_request
    return self.view_functions[rule.endpoint](**req.view_args)
  File "/home/vicky/flask_project/venv/lib/python3.6/site-packages/flask_login/utils.py", line 261, in decorated_view
    return func(*args, **kwargs)
  File "/home/vicky/flask_project/app/main/routes.py", line 32, in index
    posts = current_user.followed_posts().paginate(page, current_app.config['POSTS_PER_PAGE'], False)
  File "/home/vicky/flask_project/venv/lib/python3.6/site-packages/flask_sqlalchemy/__init__.py", line 496, in paginate
    items = self.limit(per_page).offset((page - 1) * per_page).all()
  File "/home/vicky/flask_project/venv/lib/python3.6/site-packages/sqlalchemy/orm/query.py", line 3168, in all
    return list(self)
  File "/home/vicky/flask_project/venv/lib/python3.6/site-packages/sqlalchemy/orm/query.py", line 3324, in __iter__
    return self._execute_and_instances(context)
  File "/home/vicky/flask_project/venv/lib/python3.6/site-packages/sqlalchemy/orm/query.py", line 3349, in _execute_and_instances
    result = conn.execute(querycontext.statement, self._params)
  File "/home/vicky/flask_project/venv/lib/python3.6/site-packages/sqlalchemy/engine/base.py", line 988, in execute
    return meth(self, multiparams, params)
  File "/home/vicky/flask_project/venv/lib/python3.6/site-packages/sqlalchemy/sql/elements.py", line 287, in _execute_on_connection
    return connection._execute_clauseelement(self, multiparams, params)
  File "/home/vicky/flask_project/venv/lib/python3.6/site-packages/sqlalchemy/engine/base.py", line 1107, in _execute_clauseelement
    distilled_params,
  File "/home/vicky/flask_project/venv/lib/python3.6/site-packages/sqlalchemy/engine/base.py", line 1248, in _execute_context
    e, statement, parameters, cursor, context
  File "/home/vicky/flask_project/venv/lib/python3.6/site-packages/sqlalchemy/engine/base.py", line 1466, in _handle_dbapi_exception
    util.raise_from_cause(sqlalchemy_exception, exc_info)
  File "/home/vicky/flask_project/venv/lib/python3.6/site-packages/sqlalchemy/util/compat.py", line 399, in raise_from_cause
    reraise(type(exception), exception, tb=exc_tb, cause=cause)
  File "/home/vicky/flask_project/venv/lib/python3.6/site-packages/sqlalchemy/util/compat.py", line 153, in reraise
    raise value.with_traceback(tb)
  File "/home/vicky/flask_project/venv/lib/python3.6/site-packages/sqlalchemy/engine/base.py", line 1244, in _execute_context
    cursor, statement, parameters, context
  File "/home/vicky/flask_project/venv/lib/python3.6/site-packages/sqlalchemy/engine/default.py", line 550, in do_execute
    cursor.execute(statement, parameters)
sqlalchemy.exc.OperationalError: (sqlite3.OperationalError) no such column: post.language
[SQL: SELECT anon_1.post_id AS anon_1_post_id, anon_1.post_body AS anon_1_post_body, anon_1.post_timestamp AS anon_1_post_timestamp, anon_1.post_user_id AS anon_1_post_user_id, anon_1.post_language AS anon_1_post_language 
FROM (SELECT post.id AS post_id, post.body AS post_body, post.timestamp AS post_timestamp, post.user_id AS post_user_id, post.language AS post_language 
FROM post JOIN followers ON followers.followed_id = post.user_id 
WHERE followers.follower_id = ? UNION SELECT post.id AS post_id, post.body AS post_body, post.timestamp AS post_timestamp, post.user_id AS post_user_id, post.language AS post_language 
FROM post 
WHERE post.user_id = ?) AS anon_1 ORDER BY anon_1.post_timestamp DESC
 LIMIT ? OFFSET ?]
[parameters: (2, 2, 25, 0)]
(Background on this error at: http://sqlalche.me/e/e3q8)
