2019-06-23 01:07:37,341 ERROR: Exception on / [GET] [in /home/vicky/flask_project/venv/lib/python3.6/site-packages/flask/app.py:1780]
Traceback (most recent call last):
  File "/home/vicky/flask_project/venv/lib/python3.6/site-packages/flask/app.py", line 2311, in wsgi_app
    response = self.full_dispatch_request()
  File "/home/vicky/flask_project/venv/lib/python3.6/site-packages/flask/app.py", line 1834, in full_dispatch_request
    rv = self.handle_user_exception(e)
  File "/home/vicky/flask_project/venv/lib/python3.6/site-packages/flask/app.py", line 1737, in handle_user_exception
    reraise(exc_type, exc_value, tb)
  File "/home/vicky/flask_project/venv/lib/python3.6/site-packages/flask/_compat.py", line 36, in reraise
    raise value
  File "/home/vicky/flask_project/venv/lib/python3.6/site-packages/flask/app.py", line 1832, in full_dispatch_request
    rv = self.dispatch_request()
  File "/home/vicky/flask_project/venv/lib/python3.6/site-packages/flask/app.py", line 1818, in dispatch_request
    return self.view_functions[rule.endpoint](**req.view_args)
  File "/home/vicky/flask_project/venv/lib/python3.6/site-packages/flask_login/utils.py", line 261, in decorated_view
    return func(*args, **kwargs)
  File "/home/vicky/flask_project/app/routes.py", line 37, in index
    return render_template('index.html', title=_('Home'), form=form, posts=posts.items, next_url=next_url, prev_url=prev_url)
  File "/home/vicky/flask_project/venv/lib/python3.6/site-packages/flask/templating.py", line 135, in render_template
    context, ctx.app)
  File "/home/vicky/flask_project/venv/lib/python3.6/site-packages/flask/templating.py", line 117, in _render
    rv = template.render(context)
  File "/home/vicky/flask_project/venv/lib/python3.6/site-packages/jinja2/asyncsupport.py", line 76, in render
    return original_render(self, *args, **kwargs)
  File "/home/vicky/flask_project/venv/lib/python3.6/site-packages/jinja2/environment.py", line 1008, in render
    return self.environment.handle_exception(exc_info, True)
  File "/home/vicky/flask_project/venv/lib/python3.6/site-packages/jinja2/environment.py", line 780, in handle_exception
    reraise(exc_type, exc_value, tb)
  File "/home/vicky/flask_project/venv/lib/python3.6/site-packages/jinja2/_compat.py", line 37, in reraise
    raise value.with_traceback(tb)
  File "/home/vicky/flask_project/app/templates/index.html", line 1, in top-level template code
    {% extends "base.html" %} {% block content %}
  File "/home/vicky/flask_project/app/templates/base.html", line 1, in top-level template code
    {% extends 'bootstrap/base.html' %} {% block title %} {% if title %}{{ title }} - Microblog{% else %}{{ _('Welcome to Microblog') }}{% endif %} {% endblock %} {% block navbar %}
  File "/home/vicky/flask_project/venv/lib/python3.6/site-packages/flask_bootstrap/templates/bootstrap/base.html", line 1, in top-level template code
    {% block doc -%}
  File "/home/vicky/flask_project/venv/lib/python3.6/site-packages/flask_bootstrap/templates/bootstrap/base.html", line 4, in block "doc"
    {%- block html %}
  File "/home/vicky/flask_project/venv/lib/python3.6/site-packages/flask_bootstrap/templates/bootstrap/base.html", line 20, in block "html"
    {% block body -%}
  File "/home/vicky/flask_project/venv/lib/python3.6/site-packages/flask_bootstrap/templates/bootstrap/base.html", line 23, in block "body"
    {% block content -%}
  File "/home/vicky/flask_project/app/templates/index.html", line 3, in block "content"
    {% if form %} {{ wtf.quick_form(form) }}
  File "/home/vicky/flask_project/venv/lib/python3.6/site-packages/jinja2/environment.py", line 430, in getattr
    return getattr(obj, attribute)
jinja2.exceptions.UndefinedError: 'wtf' is undefined
2019-06-23 01:13:38,158 ERROR: Exception on /index [GET] [in /home/vicky/flask_project/venv/lib/python3.6/site-packages/flask/app.py:1780]
Traceback (most recent call last):
  File "/home/vicky/flask_project/venv/lib/python3.6/site-packages/flask/app.py", line 2311, in wsgi_app
    response = self.full_dispatch_request()
  File "/home/vicky/flask_project/venv/lib/python3.6/site-packages/flask/app.py", line 1834, in full_dispatch_request
    rv = self.handle_user_exception(e)
  File "/home/vicky/flask_project/venv/lib/python3.6/site-packages/flask/app.py", line 1737, in handle_user_exception
    reraise(exc_type, exc_value, tb)
  File "/home/vicky/flask_project/venv/lib/python3.6/site-packages/flask/_compat.py", line 36, in reraise
    raise value
  File "/home/vicky/flask_project/venv/lib/python3.6/site-packages/flask/app.py", line 1832, in full_dispatch_request
    rv = self.dispatch_request()
  File "/home/vicky/flask_project/venv/lib/python3.6/site-packages/flask/app.py", line 1818, in dispatch_request
    return self.view_functions[rule.endpoint](**req.view_args)
  File "/home/vicky/flask_project/venv/lib/python3.6/site-packages/flask_login/utils.py", line 261, in decorated_view
    return func(*args, **kwargs)
  File "/home/vicky/flask_project/app/routes.py", line 37, in index
    return render_template('index.html', title=_('Home'), form=form, posts=posts.items, next_url=next_url, prev_url=prev_url)
  File "/home/vicky/flask_project/venv/lib/python3.6/site-packages/flask/templating.py", line 135, in render_template
    context, ctx.app)
  File "/home/vicky/flask_project/venv/lib/python3.6/site-packages/flask/templating.py", line 117, in _render
    rv = template.render(context)
  File "/home/vicky/flask_project/venv/lib/python3.6/site-packages/jinja2/asyncsupport.py", line 76, in render
    return original_render(self, *args, **kwargs)
  File "/home/vicky/flask_project/venv/lib/python3.6/site-packages/jinja2/environment.py", line 1008, in render
    return self.environment.handle_exception(exc_info, True)
  File "/home/vicky/flask_project/venv/lib/python3.6/site-packages/jinja2/environment.py", line 780, in handle_exception
    reraise(exc_type, exc_value, tb)
  File "/home/vicky/flask_project/venv/lib/python3.6/site-packages/jinja2/_compat.py", line 37, in reraise
    raise value.with_traceback(tb)
  File "/home/vicky/flask_project/app/templates/index.html", line 1, in top-level template code
    {% extends "base.html" %} {% block content %}
  File "/home/vicky/flask_project/app/templates/base.html", line 1, in top-level template code
    {% extends 'bootstrap/base.html' %} {% block title %} {% if title %}{{ title }} - Microblog{% else %}{{ _('Welcome to Microblog') }}{% endif %} {% endblock %} {% block navbar %}
  File "/home/vicky/flask_project/venv/lib/python3.6/site-packages/flask_bootstrap/templates/bootstrap/base.html", line 1, in top-level template code
    {% block doc -%}
  File "/home/vicky/flask_project/venv/lib/python3.6/site-packages/flask_bootstrap/templates/bootstrap/base.html", line 4, in block "doc"
    {%- block html %}
  File "/home/vicky/flask_project/venv/lib/python3.6/site-packages/flask_bootstrap/templates/bootstrap/base.html", line 20, in block "html"
    {% block body -%}
  File "/home/vicky/flask_project/venv/lib/python3.6/site-packages/flask_bootstrap/templates/bootstrap/base.html", line 23, in block "body"
    {% block content -%}
  File "/home/vicky/flask_project/app/templates/index.html", line 3, in block "content"
    {% if form %} {{ wtf.quick_form(form) }}
  File "/home/vicky/flask_project/venv/lib/python3.6/site-packages/jinja2/environment.py", line 430, in getattr
    return getattr(obj, attribute)
jinja2.exceptions.UndefinedError: 'wtf' is undefined
2019-06-23 01:15:24,821 INFO: Microblog startup [in /home/vicky/flask_project/app/__init__.py:49]
2019-06-23 01:19:40,185 INFO: Microblog startup [in /home/vicky/flask_project/app/__init__.py:49]
